<svg width="28" height="30" viewBox="0 0 28 30" fill="none" xmlns="http://www.w3.org/2000/svg">
<path d="M14.0731 5.2428C15.1117 5.2428 15.9565 4.39803 15.9565 3.36041V2.63239C15.9567 1.59477 15.1119 0.75 14.0731 0.75C13.0345 0.75 12.1897 1.59477 12.1897 2.63239V3.36041C12.1897 4.39803 13.0345 5.2428 14.0731 5.2428Z" fill="#4B2EFF"/>
<path d="M20.6858 5.35341C21.6326 5.35341 22.4024 4.58378 22.4024 3.63678V2.96517C22.4024 2.01935 21.6328 1.24854 20.6858 1.24854C19.7388 1.24854 18.9682 2.01914 18.9682 2.96517V3.63678C18.9682 4.58378 19.7388 5.35341 20.6858 5.35341Z" fill="#4B2EFF"/>
<path d="M7.46092 5.35341C8.40674 5.35341 9.17755 4.58378 9.17755 3.63678L9.17735 2.96517C9.17735 2.01935 8.40674 1.24854 7.46071 1.24854C6.51371 1.24854 5.7431 2.01914 5.7431 2.96517V3.63678C5.7431 4.58378 6.51391 5.35341 7.46092 5.35341Z" fill="#4B2EFF"/>
<path d="M18.2342 25.2579V25.2569C18.2321 25.2464 18.2299 25.236 18.2289 25.2245L18.159 24.8177C18.0963 24.4537 18.2173 24.0825 18.4823 23.8239L21.7404 20.6484C21.8249 20.566 21.8061 20.47 21.7936 20.4325C21.7811 20.3949 21.7404 20.3063 21.6236 20.2896L17.1214 19.6347C16.7554 19.5815 16.4394 19.3521 16.2757 19.0204L14.262 14.9407C14.2097 14.8342 14.1129 14.824 14.0731 14.824C14.0345 14.824 13.9365 14.8344 13.8843 14.9407L11.8715 19.0204C11.7078 19.3521 11.3908 19.5815 11.0247 19.6347L6.52253 20.2896C6.40582 20.3063 6.36503 20.3949 6.35258 20.4325C6.34113 20.47 6.32124 20.5659 6.40582 20.6484L9.66392 23.8239C9.92889 24.0825 10.0498 24.4539 9.98716 24.8177L9.91724 25.2245C9.91624 25.236 9.91423 25.2474 9.91102 25.2601L9.21853 29.3023C9.19864 29.419 9.27076 29.4847 9.3019 29.5088C9.33425 29.5317 9.41862 29.5797 9.52409 29.5245L13.5506 27.4075C13.7143 27.3209 13.8937 27.2781 14.0731 27.2781C14.2525 27.2781 14.4329 27.3209 14.5966 27.4075L18.6231 29.5245C18.7274 29.5797 18.813 29.5317 18.8443 29.5088C18.8767 29.4849 18.9486 29.4192 18.9289 29.3023L18.2342 25.2579Z" fill="#FF8B38"/>
<path d="M4.25022 15.7332H4.64759V10.1964C4.64759 10.0526 4.76431 9.93565 4.90835 9.93565C5.05339 9.93565 5.16911 10.0524 5.16911 10.1964V15.7476L6.64166 12.7629C6.75536 12.5325 6.98699 12.3885 7.24456 12.3875H7.24657C7.50411 12.3875 7.73574 12.5313 7.85147 12.7629L8.67957 14.442L8.67937 10.5591C8.67937 9.33889 9.26334 8.25328 10.1676 7.56604C9.79315 7.4003 9.38652 7.31372 8.97128 7.31372H5.95006C5.4151 7.31372 4.89156 7.45756 4.43472 7.73098C3.54094 8.26295 2.98505 9.23907 2.98505 10.2777L2.98525 14.468C2.98525 15.1656 3.55256 15.733 4.25029 15.733L4.25022 15.7332Z" fill="#6C54FF"/>
<path d="M9.4728 24.7301C9.50614 24.535 9.44146 24.3359 9.29963 24.1971L6.04152 21.0216C5.84124 20.8255 5.77032 20.5376 5.85691 20.2706C5.94349 20.0047 6.16969 19.8138 6.44715 19.7732L10.9503 19.1193C11.1464 19.0902 11.3154 18.967 11.403 18.7899L12.0683 17.4403L11.2851 17.3266L11.2547 17.3223L9.99917 17.1399L9.99495 17.1389C9.98249 17.1389 9.97104 17.1369 9.95959 17.1347L9.95336 17.1337L9.91379 17.1275C9.58111 17.0785 9.29526 16.8709 9.14719 16.5706L7.38273 12.9945C7.34516 12.9174 7.27425 12.9121 7.24512 12.9089C7.21699 12.9089 7.14708 12.9174 7.10952 12.9933L5.34387 16.5706C5.2824 16.6958 5.19581 16.8053 5.09255 16.8919C5.08633 16.8981 5.0801 16.9033 5.07367 16.9085C5.06744 16.9138 5.06121 16.919 5.05378 16.9232C4.91718 17.0317 4.75445 17.1016 4.57727 17.1275L0.631151 17.701C0.546777 17.7135 0.51644 17.7772 0.508206 17.8043C0.498764 17.8314 0.485304 17.9013 0.546777 17.9608L3.40225 20.7444C3.64312 20.98 3.7526 21.3169 3.69535 21.6464L3.02138 25.5758C3.00691 25.6614 3.05794 25.7082 3.08084 25.7249C3.10374 25.7416 3.16642 25.7771 3.24256 25.7363L6.77287 23.8811C7.06898 23.7246 7.42354 23.7246 7.71987 23.8811L9.4614 24.7978L9.4728 24.7301Z" fill="#FF8B38"/>
<path d="M19.4669 10.5596V14.4433L20.296 12.7632C20.4097 12.5328 20.6411 12.3887 20.8989 12.3877H20.8999C21.1584 12.3877 21.3901 12.5316 21.5048 12.7632L22.9773 15.7469L22.9771 10.1967C22.9771 10.0529 23.0939 9.93593 23.2379 9.93593C23.3819 9.93593 23.4987 10.0527 23.4987 10.1967V15.7335H23.896C24.5937 15.7335 25.1611 15.1662 25.1611 14.4685V10.2782C25.1611 9.2394 24.6062 8.26324 23.7126 7.73146C23.2548 7.45825 22.7313 7.31421 22.1973 7.31421H19.1748C18.7598 7.31421 18.353 7.40079 17.9787 7.56653C18.8827 8.25377 19.4669 9.33943 19.4669 10.5596L19.4669 10.5596Z" fill="#6C54FF"/>
<path d="M17.5533 16.4943C18.3209 16.4943 18.9454 15.8696 18.9454 15.1009V10.5592C18.9454 8.77584 17.4948 7.32422 15.7105 7.32422H12.4357C10.6524 7.32422 9.20053 8.77589 9.20053 10.5592V15.1009C9.20053 15.8695 9.82529 16.4943 10.5939 16.4943H11.0465V10.4705C11.0465 10.3267 11.1623 10.2098 11.3073 10.2098C11.4511 10.2098 11.5681 10.3265 11.5681 10.4705V16.8405L12.3116 16.9489L13.4171 14.7098C13.5412 14.4575 13.7925 14.302 14.073 14.302C14.3534 14.302 14.605 14.4573 14.7301 14.7098L15.8344 16.9489L16.579 16.8405L16.5792 10.4705C16.5792 10.3267 16.6959 10.2098 16.8399 10.2098C16.984 10.2098 17.1007 10.3265 17.1007 10.4705V16.4943H17.5533Z" fill="#6C54FF"/>
<path d="M27.6003 17.9623C27.6608 17.9018 27.6474 17.8329 27.6389 17.8058C27.6295 17.7786 27.6003 17.7139 27.5158 17.7015L23.5674 17.128C23.3828 17.1008 23.2119 17.0237 23.072 16.909C23.0648 16.9048 23.0586 16.8996 23.0532 16.8923C22.9499 16.8057 22.8633 16.6962 22.8018 16.5711L21.0374 12.995C20.9988 12.9179 20.9269 12.9126 20.8998 12.9094C20.8716 12.9094 20.8017 12.9179 20.7642 12.9938L18.9987 16.5711C18.8497 16.8714 18.5628 17.08 18.2321 17.128L18.1926 17.1342L18.1863 17.1352C18.1749 17.1372 18.1634 17.1394 18.151 17.1394L18.1468 17.1404L16.8932 17.3229H16.8922L16.8618 17.3271H16.8598L16.0778 17.4418L16.7431 18.7902C16.8307 18.9674 17.0007 19.0905 17.1968 19.1197L21.699 19.7736C21.9764 19.8141 22.2026 20.005 22.2902 20.271C22.3768 20.538 22.3059 20.8258 22.1046 21.0219L18.8465 24.1977C18.7046 24.3363 18.6399 24.5356 18.6733 24.7306L18.6847 24.7973L20.4275 23.8816C20.7236 23.7251 21.0772 23.7251 21.3745 23.8816L24.9036 25.7379C24.9797 25.7775 25.0412 25.7421 25.0641 25.7254C25.088 25.7088 25.1392 25.6607 25.1256 25.5764L24.4508 21.6467C24.3955 21.3172 24.504 20.9803 24.7427 20.7457L27.6003 17.9623Z" fill="#FF8B38"/>
</svg>
